ID,Tabela,Descrição,Usuário,Horário
" 1 "," Fornecedor "," ""Fornecedor 1"" Modificado "," admin "," 14:09:40 "
" 1 "," Fornecedor "," ""Fornecedor 1"" Modificado "," admin "," 14:09:47 "
" 1 "," Fornecedor "," ""Fornecedor 2"" Modificado "," admin "," 14:09:53 "
